ISO-10303-21;
HEADER;
/* Generated by software containing ST-Developer
 * from STEP Tools, Inc. (www.steptools.com) 
 */

FILE_DESCRIPTION(
/* description */ (''),
/* implementation_level */ '2;1');

FILE_NAME(
/* name */ 
'C:/Users/Administrator/Documents/3dPrint/HoldDownSpacer-15mm v6.step',

/* time_stamp */ '2020-12-22T12:12:19-05:00',
/* author */ (''),
/* organization */ (''),
/* preprocessor_version */ 'ST-DEVELOPER v18.1',
/* originating_system */ 'Autodesk Translation Framework v9.3.0.1241',
/* authorisation */ '');

FILE_SCHEMA (('AUTOMOTIVE_DESIGN { 1 0 10303 214 3 1 1 }'));
ENDSEC;

DATA;
#10=MECHANICAL_DESIGN_GEOMETRIC_PRESENTATION_REPRESENTATION('',(#17),#717);
#11=ITEM_DEFINED_TRANSFORMATION($,$,#453,#480);
#12=(
REPRESENTATION_RELATIONSHIP($,$,#728,#727)
REPRESENTATION_RELATIONSHIP_WITH_TRANSFORMATION(#11)
SHAPE_REPRESENTATION_RELATIONSHIP()
);
#13=CONTEXT_DEPENDENT_SHAPE_REPRESENTATION(#12,#726);
#14=NEXT_ASSEMBLY_USAGE_OCCURRENCE('Component1:1','Component1:1',
'Component1:1',#730,#731,'Component1:1');
#15=SHAPE_REPRESENTATION_RELATIONSHIP('SRR','None',#728,#16);
#16=ADVANCED_BREP_SHAPE_REPRESENTATION('',(#18),#716);
#17=STYLED_ITEM('',(#741),#18);
#18=MANIFOLD_SOLID_BREP('Body1',#439);
#19=FACE_BOUND('',#54,.T.);
#20=FACE_BOUND('',#67,.T.);
#21=FACE_OUTER_BOUND('',#47,.T.);
#22=FACE_OUTER_BOUND('',#48,.T.);
#23=FACE_OUTER_BOUND('',#49,.T.);
#24=FACE_OUTER_BOUND('',#50,.T.);
#25=FACE_OUTER_BOUND('',#51,.T.);
#26=FACE_OUTER_BOUND('',#52,.T.);
#27=FACE_OUTER_BOUND('',#53,.T.);
#28=FACE_OUTER_BOUND('',#55,.T.);
#29=FACE_OUTER_BOUND('',#56,.T.);
#30=FACE_OUTER_BOUND('',#57,.T.);
#31=FACE_OUTER_BOUND('',#58,.T.);
#32=FACE_OUTER_BOUND('',#59,.T.);
#33=FACE_OUTER_BOUND('',#60,.T.);
#34=FACE_OUTER_BOUND('',#61,.T.);
#35=FACE_OUTER_BOUND('',#62,.T.);
#36=FACE_OUTER_BOUND('',#63,.T.);
#37=FACE_OUTER_BOUND('',#64,.T.);
#38=FACE_OUTER_BOUND('',#65,.T.);
#39=FACE_OUTER_BOUND('',#66,.T.);
#40=FACE_OUTER_BOUND('',#68,.T.);
#41=FACE_OUTER_BOUND('',#69,.T.);
#42=FACE_OUTER_BOUND('',#70,.T.);
#43=FACE_OUTER_BOUND('',#71,.T.);
#44=FACE_OUTER_BOUND('',#72,.T.);
#45=FACE_OUTER_BOUND('',#73,.T.);
#46=FACE_OUTER_BOUND('',#74,.T.);
#47=EDGE_LOOP('',(#275,#276,#277,#278));
#48=EDGE_LOOP('',(#279,#280,#281,#282));
#49=EDGE_LOOP('',(#283,#284,#285,#286));
#50=EDGE_LOOP('',(#287,#288,#289,#290));
#51=EDGE_LOOP('',(#291,#292,#293,#294));
#52=EDGE_LOOP('',(#295,#296,#297,#298));
#53=EDGE_LOOP('',(#299,#300,#301,#302));
#54=EDGE_LOOP('',(#303,#304,#305,#306));
#55=EDGE_LOOP('',(#307,#308,#309,#310));
#56=EDGE_LOOP('',(#311,#312,#313,#314));
#57=EDGE_LOOP('',(#315,#316,#317,#318));
#58=EDGE_LOOP('',(#319,#320,#321,#322));
#59=EDGE_LOOP('',(#323,#324,#325,#326));
#60=EDGE_LOOP('',(#327,#328,#329,#330));
#61=EDGE_LOOP('',(#331,#332,#333,#334));
#62=EDGE_LOOP('',(#335,#336,#337,#338));
#63=EDGE_LOOP('',(#339,#340,#341,#342));
#64=EDGE_LOOP('',(#343,#344,#345,#346));
#65=EDGE_LOOP('',(#347,#348,#349,#350));
#66=EDGE_LOOP('',(#351,#352,#353,#354));
#67=EDGE_LOOP('',(#355,#356,#357,#358));
#68=EDGE_LOOP('',(#359,#360,#361,#362));
#69=EDGE_LOOP('',(#363,#364,#365,#366));
#70=EDGE_LOOP('',(#367,#368,#369,#370));
#71=EDGE_LOOP('',(#371,#372,#373,#374));
#72=EDGE_LOOP('',(#375,#376,#377,#378));
#73=EDGE_LOOP('',(#379,#380,#381,#382));
#74=EDGE_LOOP('',(#383,#384,#385,#386));
#75=LINE('',#600,#131);
#76=LINE('',#602,#132);
#77=LINE('',#604,#133);
#78=LINE('',#605,#134);
#79=LINE('',#609,#135);
#80=LINE('',#611,#136);
#81=LINE('',#613,#137);
#82=LINE('',#614,#138);
#83=LINE('',#616,#139);
#84=LINE('',#617,#140);
#85=LINE('',#619,#141);
#86=LINE('',#620,#142);
#87=LINE('',#623,#143);
#88=LINE('',#625,#144);
#89=LINE('',#626,#145);
#90=LINE('',#629,#146);
#91=LINE('',#630,#147);
#92=LINE('',#634,#148);
#93=LINE('',#636,#149);
#94=LINE('',#638,#150);
#95=LINE('',#639,#151);
#96=LINE('',#642,#152);
#97=LINE('',#644,#153);
#98=LINE('',#645,#154);
#99=LINE('',#648,#155);
#100=LINE('',#649,#156);
#101=LINE('',#652,#157);
#102=LINE('',#653,#158);
#103=LINE('',#655,#159);
#104=LINE('',#658,#160);
#105=LINE('',#660,#161);
#106=LINE('',#661,#162);
#107=LINE('',#664,#163);
#108=LINE('',#665,#164);
#109=LINE('',#669,#165);
#110=LINE('',#671,#166);
#111=LINE('',#672,#167);
#112=LINE('',#673,#168);
#113=LINE('',#676,#169);
#114=LINE('',#677,#170);
#115=LINE('',#678,#171);
#116=LINE('',#681,#172);
#117=LINE('',#682,#173);
#118=LINE('',#684,#174);
#119=LINE('',#686,#175);
#120=LINE('',#690,#176);
#121=LINE('',#692,#177);
#122=LINE('',#694,#178);
#123=LINE('',#695,#179);
#124=LINE('',#697,#180);
#125=LINE('',#698,#181);
#126=LINE('',#701,#182);
#127=LINE('',#702,#183);
#128=LINE('',#704,#184);
#129=LINE('',#705,#185);
#130=LINE('',#708,#186);
#131=VECTOR('',#487,10.);
#132=VECTOR('',#488,10.);
#133=VECTOR('',#489,10.);
#134=VECTOR('',#490,10.);
#135=VECTOR('',#493,10.);
#136=VECTOR('',#494,10.);
#137=VECTOR('',#495,10.);
#138=VECTOR('',#496,10.);
#139=VECTOR('',#499,10.);
#140=VECTOR('',#500,10.);
#141=VECTOR('',#503,10.);
#142=VECTOR('',#504,10.);
#143=VECTOR('',#507,10.);
#144=VECTOR('',#508,10.);
#145=VECTOR('',#509,10.);
#146=VECTOR('',#512,10.);
#147=VECTOR('',#513,10.);
#148=VECTOR('',#516,10.);
#149=VECTOR('',#517,10.);
#150=VECTOR('',#518,10.);
#151=VECTOR('',#519,10.);
#152=VECTOR('',#522,10.);
#153=VECTOR('',#523,10.);
#154=VECTOR('',#524,10.);
#155=VECTOR('',#527,10.);
#156=VECTOR('',#528,10.);
#157=VECTOR('',#531,10.);
#158=VECTOR('',#532,10.);
#159=VECTOR('',#535,10.);
#160=VECTOR('',#538,10.);
#161=VECTOR('',#539,10.);
#162=VECTOR('',#540,10.);
#163=VECTOR('',#543,10.);
#164=VECTOR('',#544,10.);
#165=VECTOR('',#547,10.);
#166=VECTOR('',#548,10.);
#167=VECTOR('',#549,10.);
#168=VECTOR('',#550,10.);
#169=VECTOR('',#553,10.);
#170=VECTOR('',#554,10.);
#171=VECTOR('',#555,10.);
#172=VECTOR('',#558,10.);
#173=VECTOR('',#559,10.);
#174=VECTOR('',#562,10.);
#175=VECTOR('',#565,10.);
#176=VECTOR('',#568,10.);
#177=VECTOR('',#569,10.);
#178=VECTOR('',#570,10.);
#179=VECTOR('',#571,10.);
#180=VECTOR('',#574,10.);
#181=VECTOR('',#575,10.);
#182=VECTOR('',#578,10.);
#183=VECTOR('',#579,10.);
#184=VECTOR('',#582,10.);
#185=VECTOR('',#583,10.);
#186=VECTOR('',#588,10.);
#187=VERTEX_POINT('',#598);
#188=VERTEX_POINT('',#599);
#189=VERTEX_POINT('',#601);
#190=VERTEX_POINT('',#603);
#191=VERTEX_POINT('',#607);
#192=VERTEX_POINT('',#608);
#193=VERTEX_POINT('',#610);
#194=VERTEX_POINT('',#612);
#195=VERTEX_POINT('',#622);
#196=VERTEX_POINT('',#624);
#197=VERTEX_POINT('',#628);
#198=VERTEX_POINT('',#632);
#199=VERTEX_POINT('',#633);
#200=VERTEX_POINT('',#635);
#201=VERTEX_POINT('',#637);
#202=VERTEX_POINT('',#641);
#203=VERTEX_POINT('',#643);
#204=VERTEX_POINT('',#647);
#205=VERTEX_POINT('',#651);
#206=VERTEX_POINT('',#657);
#207=VERTEX_POINT('',#659);
#208=VERTEX_POINT('',#663);
#209=VERTEX_POINT('',#667);
#210=VERTEX_POINT('',#668);
#211=VERTEX_POINT('',#670);
#212=VERTEX_POINT('',#675);
#213=VERTEX_POINT('',#680);
#214=VERTEX_POINT('',#688);
#215=VERTEX_POINT('',#689);
#216=VERTEX_POINT('',#691);
#217=VERTEX_POINT('',#693);
#218=VERTEX_POINT('',#700);
#219=EDGE_CURVE('',#187,#188,#75,.T.);
#220=EDGE_CURVE('',#188,#189,#76,.T.);
#221=EDGE_CURVE('',#189,#190,#77,.T.);
#222=EDGE_CURVE('',#190,#187,#78,.T.);
#223=EDGE_CURVE('',#191,#192,#79,.T.);
#224=EDGE_CURVE('',#192,#193,#80,.T.);
#225=EDGE_CURVE('',#193,#194,#81,.T.);
#226=EDGE_CURVE('',#191,#194,#82,.T.);
#227=EDGE_CURVE('',#188,#193,#83,.T.);
#228=EDGE_CURVE('',#192,#189,#84,.T.);
#229=EDGE_CURVE('',#194,#187,#85,.T.);
#230=EDGE_CURVE('',#190,#191,#86,.T.);
#231=EDGE_CURVE('',#194,#195,#87,.T.);
#232=EDGE_CURVE('',#196,#195,#88,.T.);
#233=EDGE_CURVE('',#187,#196,#89,.T.);
#234=EDGE_CURVE('',#193,#197,#90,.T.);
#235=EDGE_CURVE('',#195,#197,#91,.T.);
#236=EDGE_CURVE('',#198,#199,#92,.T.);
#237=EDGE_CURVE('',#200,#198,#93,.T.);
#238=EDGE_CURVE('',#201,#200,#94,.T.);
#239=EDGE_CURVE('',#199,#201,#95,.T.);
#240=EDGE_CURVE('',#199,#202,#96,.T.);
#241=EDGE_CURVE('',#202,#203,#97,.T.);
#242=EDGE_CURVE('',#203,#198,#98,.T.);
#243=EDGE_CURVE('',#204,#202,#99,.T.);
#244=EDGE_CURVE('',#201,#204,#100,.T.);
#245=EDGE_CURVE('',#205,#204,#101,.T.);
#246=EDGE_CURVE('',#200,#205,#102,.T.);
#247=EDGE_CURVE('',#203,#205,#103,.T.);
#248=EDGE_CURVE('',#203,#206,#104,.T.);
#249=EDGE_CURVE('',#207,#206,#105,.T.);
#250=EDGE_CURVE('',#205,#207,#106,.T.);
#251=EDGE_CURVE('',#202,#208,#107,.T.);
#252=EDGE_CURVE('',#206,#208,#108,.T.);
#253=EDGE_CURVE('',#209,#210,#109,.T.);
#254=EDGE_CURVE('',#210,#211,#110,.T.);
#255=EDGE_CURVE('',#211,#196,#111,.T.);
#256=EDGE_CURVE('',#209,#196,#112,.T.);
#257=EDGE_CURVE('',#210,#212,#113,.T.);
#258=EDGE_CURVE('',#212,#197,#114,.T.);
#259=EDGE_CURVE('',#197,#211,#115,.T.);
#260=EDGE_CURVE('',#212,#213,#116,.T.);
#261=EDGE_CURVE('',#213,#195,#117,.T.);
#262=EDGE_CURVE('',#213,#209,#118,.T.);
#263=EDGE_CURVE('',#188,#211,#119,.T.);
#264=EDGE_CURVE('',#214,#215,#120,.T.);
#265=EDGE_CURVE('',#216,#214,#121,.T.);
#266=EDGE_CURVE('',#217,#216,#122,.T.);
#267=EDGE_CURVE('',#215,#217,#123,.T.);
#268=EDGE_CURVE('',#215,#207,#124,.T.);
#269=EDGE_CURVE('',#214,#206,#125,.T.);
#270=EDGE_CURVE('',#217,#218,#126,.T.);
#271=EDGE_CURVE('',#218,#207,#127,.T.);
#272=EDGE_CURVE('',#216,#208,#128,.T.);
#273=EDGE_CURVE('',#208,#218,#129,.T.);
#274=EDGE_CURVE('',#204,#218,#130,.T.);
#275=ORIENTED_EDGE('',*,*,#219,.T.);
#276=ORIENTED_EDGE('',*,*,#220,.T.);
#277=ORIENTED_EDGE('',*,*,#221,.T.);
#278=ORIENTED_EDGE('',*,*,#222,.T.);
#279=ORIENTED_EDGE('',*,*,#223,.T.);
#280=ORIENTED_EDGE('',*,*,#224,.T.);
#281=ORIENTED_EDGE('',*,*,#225,.T.);
#282=ORIENTED_EDGE('',*,*,#226,.F.);
#283=ORIENTED_EDGE('',*,*,#227,.T.);
#284=ORIENTED_EDGE('',*,*,#224,.F.);
#285=ORIENTED_EDGE('',*,*,#228,.T.);
#286=ORIENTED_EDGE('',*,*,#220,.F.);
#287=ORIENTED_EDGE('',*,*,#229,.T.);
#288=ORIENTED_EDGE('',*,*,#222,.F.);
#289=ORIENTED_EDGE('',*,*,#230,.T.);
#290=ORIENTED_EDGE('',*,*,#226,.T.);
#291=ORIENTED_EDGE('',*,*,#229,.F.);
#292=ORIENTED_EDGE('',*,*,#231,.T.);
#293=ORIENTED_EDGE('',*,*,#232,.F.);
#294=ORIENTED_EDGE('',*,*,#233,.F.);
#295=ORIENTED_EDGE('',*,*,#225,.F.);
#296=ORIENTED_EDGE('',*,*,#234,.T.);
#297=ORIENTED_EDGE('',*,*,#235,.F.);
#298=ORIENTED_EDGE('',*,*,#231,.F.);
#299=ORIENTED_EDGE('',*,*,#223,.F.);
#300=ORIENTED_EDGE('',*,*,#230,.F.);
#301=ORIENTED_EDGE('',*,*,#221,.F.);
#302=ORIENTED_EDGE('',*,*,#228,.F.);
#303=ORIENTED_EDGE('',*,*,#236,.F.);
#304=ORIENTED_EDGE('',*,*,#237,.F.);
#305=ORIENTED_EDGE('',*,*,#238,.F.);
#306=ORIENTED_EDGE('',*,*,#239,.F.);
#307=ORIENTED_EDGE('',*,*,#236,.T.);
#308=ORIENTED_EDGE('',*,*,#240,.T.);
#309=ORIENTED_EDGE('',*,*,#241,.T.);
#310=ORIENTED_EDGE('',*,*,#242,.T.);
#311=ORIENTED_EDGE('',*,*,#243,.T.);
#312=ORIENTED_EDGE('',*,*,#240,.F.);
#313=ORIENTED_EDGE('',*,*,#239,.T.);
#314=ORIENTED_EDGE('',*,*,#244,.T.);
#315=ORIENTED_EDGE('',*,*,#245,.T.);
#316=ORIENTED_EDGE('',*,*,#244,.F.);
#317=ORIENTED_EDGE('',*,*,#238,.T.);
#318=ORIENTED_EDGE('',*,*,#246,.T.);
#319=ORIENTED_EDGE('',*,*,#247,.T.);
#320=ORIENTED_EDGE('',*,*,#246,.F.);
#321=ORIENTED_EDGE('',*,*,#237,.T.);
#322=ORIENTED_EDGE('',*,*,#242,.F.);
#323=ORIENTED_EDGE('',*,*,#247,.F.);
#324=ORIENTED_EDGE('',*,*,#248,.T.);
#325=ORIENTED_EDGE('',*,*,#249,.F.);
#326=ORIENTED_EDGE('',*,*,#250,.F.);
#327=ORIENTED_EDGE('',*,*,#241,.F.);
#328=ORIENTED_EDGE('',*,*,#251,.T.);
#329=ORIENTED_EDGE('',*,*,#252,.F.);
#330=ORIENTED_EDGE('',*,*,#248,.F.);
#331=ORIENTED_EDGE('',*,*,#253,.T.);
#332=ORIENTED_EDGE('',*,*,#254,.T.);
#333=ORIENTED_EDGE('',*,*,#255,.T.);
#334=ORIENTED_EDGE('',*,*,#256,.F.);
#335=ORIENTED_EDGE('',*,*,#257,.T.);
#336=ORIENTED_EDGE('',*,*,#258,.T.);
#337=ORIENTED_EDGE('',*,*,#259,.T.);
#338=ORIENTED_EDGE('',*,*,#254,.F.);
#339=ORIENTED_EDGE('',*,*,#260,.T.);
#340=ORIENTED_EDGE('',*,*,#261,.T.);
#341=ORIENTED_EDGE('',*,*,#235,.T.);
#342=ORIENTED_EDGE('',*,*,#258,.F.);
#343=ORIENTED_EDGE('',*,*,#232,.T.);
#344=ORIENTED_EDGE('',*,*,#261,.F.);
#345=ORIENTED_EDGE('',*,*,#262,.T.);
#346=ORIENTED_EDGE('',*,*,#256,.T.);
#347=ORIENTED_EDGE('',*,*,#219,.F.);
#348=ORIENTED_EDGE('',*,*,#233,.T.);
#349=ORIENTED_EDGE('',*,*,#255,.F.);
#350=ORIENTED_EDGE('',*,*,#263,.F.);
#351=ORIENTED_EDGE('',*,*,#253,.F.);
#352=ORIENTED_EDGE('',*,*,#262,.F.);
#353=ORIENTED_EDGE('',*,*,#260,.F.);
#354=ORIENTED_EDGE('',*,*,#257,.F.);
#355=ORIENTED_EDGE('',*,*,#264,.F.);
#356=ORIENTED_EDGE('',*,*,#265,.F.);
#357=ORIENTED_EDGE('',*,*,#266,.F.);
#358=ORIENTED_EDGE('',*,*,#267,.F.);
#359=ORIENTED_EDGE('',*,*,#264,.T.);
#360=ORIENTED_EDGE('',*,*,#268,.T.);
#361=ORIENTED_EDGE('',*,*,#249,.T.);
#362=ORIENTED_EDGE('',*,*,#269,.F.);
#363=ORIENTED_EDGE('',*,*,#267,.T.);
#364=ORIENTED_EDGE('',*,*,#270,.T.);
#365=ORIENTED_EDGE('',*,*,#271,.T.);
#366=ORIENTED_EDGE('',*,*,#268,.F.);
#367=ORIENTED_EDGE('',*,*,#266,.T.);
#368=ORIENTED_EDGE('',*,*,#272,.T.);
#369=ORIENTED_EDGE('',*,*,#273,.T.);
#370=ORIENTED_EDGE('',*,*,#270,.F.);
#371=ORIENTED_EDGE('',*,*,#252,.T.);
#372=ORIENTED_EDGE('',*,*,#272,.F.);
#373=ORIENTED_EDGE('',*,*,#265,.T.);
#374=ORIENTED_EDGE('',*,*,#269,.T.);
#375=ORIENTED_EDGE('',*,*,#245,.F.);
#376=ORIENTED_EDGE('',*,*,#250,.T.);
#377=ORIENTED_EDGE('',*,*,#271,.F.);
#378=ORIENTED_EDGE('',*,*,#274,.F.);
#379=ORIENTED_EDGE('',*,*,#243,.F.);
#380=ORIENTED_EDGE('',*,*,#274,.T.);
#381=ORIENTED_EDGE('',*,*,#273,.F.);
#382=ORIENTED_EDGE('',*,*,#251,.F.);
#383=ORIENTED_EDGE('',*,*,#227,.F.);
#384=ORIENTED_EDGE('',*,*,#263,.T.);
#385=ORIENTED_EDGE('',*,*,#259,.F.);
#386=ORIENTED_EDGE('',*,*,#234,.F.);
#387=PLANE('',#454);
#388=PLANE('',#455);
#389=PLANE('',#456);
#390=PLANE('',#457);
#391=PLANE('',#458);
#392=PLANE('',#459);
#393=PLANE('',#460);
#394=PLANE('',#461);
#395=PLANE('',#462);
#396=PLANE('',#463);
#397=PLANE('',#464);
#398=PLANE('',#465);
#399=PLANE('',#466);
#400=PLANE('',#467);
#401=PLANE('',#468);
#402=PLANE('',#469);
#403=PLANE('',#470);
#404=PLANE('',#471);
#405=PLANE('',#472);
#406=PLANE('',#473);
#407=PLANE('',#474);
#408=PLANE('',#475);
#409=PLANE('',#476);
#410=PLANE('',#477);
#411=PLANE('',#478);
#412=PLANE('',#479);
#413=ADVANCED_FACE('',(#21),#387,.T.);
#414=ADVANCED_FACE('',(#22),#388,.T.);
#415=ADVANCED_FACE('',(#23),#389,.T.);
#416=ADVANCED_FACE('',(#24),#390,.T.);
#417=ADVANCED_FACE('',(#25),#391,.T.);
#418=ADVANCED_FACE('',(#26),#392,.T.);
#419=ADVANCED_FACE('',(#27,#19),#393,.F.);
#420=ADVANCED_FACE('',(#28),#394,.T.);
#421=ADVANCED_FACE('',(#29),#395,.T.);
#422=ADVANCED_FACE('',(#30),#396,.T.);
#423=ADVANCED_FACE('',(#31),#397,.T.);
#424=ADVANCED_FACE('',(#32),#398,.T.);
#425=ADVANCED_FACE('',(#33),#399,.T.);
#426=ADVANCED_FACE('',(#34),#400,.T.);
#427=ADVANCED_FACE('',(#35),#401,.T.);
#428=ADVANCED_FACE('',(#36),#402,.T.);
#429=ADVANCED_FACE('',(#37),#403,.T.);
#430=ADVANCED_FACE('',(#38),#404,.T.);
#431=ADVANCED_FACE('',(#39,#20),#405,.T.);
#432=ADVANCED_FACE('',(#40),#406,.T.);
#433=ADVANCED_FACE('',(#41),#407,.T.);
#434=ADVANCED_FACE('',(#42),#408,.T.);
#435=ADVANCED_FACE('',(#43),#409,.T.);
#436=ADVANCED_FACE('',(#44),#410,.T.);
#437=ADVANCED_FACE('',(#45),#411,.T.);
#438=ADVANCED_FACE('',(#46),#412,.T.);
#439=CLOSED_SHELL('',(#413,#414,#415,#416,#417,#418,#419,#420,#421,#422,
#423,#424,#425,#426,#427,#428,#429,#430,#431,#432,#433,#434,#435,#436,#437,
#438));
#440=DERIVED_UNIT_ELEMENT(#442,1.);
#441=DERIVED_UNIT_ELEMENT(#719,3.);
#442=(
MASS_UNIT()
NAMED_UNIT(*)
SI_UNIT(.KILO.,.GRAM.)
);
#443=DERIVED_UNIT((#440,#441));
#444=MEASURE_REPRESENTATION_ITEM('density measure',
POSITIVE_RATIO_MEASURE(7850.),#443);
#445=PROPERTY_DEFINITION_REPRESENTATION(#450,#447);
#446=PROPERTY_DEFINITION_REPRESENTATION(#451,#448);
#447=REPRESENTATION('material name',(#449),#716);
#448=REPRESENTATION('density',(#444),#716);
#449=DESCRIPTIVE_REPRESENTATION_ITEM('Steel','Steel');
#450=PROPERTY_DEFINITION('material property','material name',#731);
#451=PROPERTY_DEFINITION('material property','density of part',#731);
#452=AXIS2_PLACEMENT_3D('placement',#595,#481,#482);
#453=AXIS2_PLACEMENT_3D('placement',#596,#483,#484);
#454=AXIS2_PLACEMENT_3D('',#597,#485,#486);
#455=AXIS2_PLACEMENT_3D('',#606,#491,#492);
#456=AXIS2_PLACEMENT_3D('',#615,#497,#498);
#457=AXIS2_PLACEMENT_3D('',#618,#501,#502);
#458=AXIS2_PLACEMENT_3D('',#621,#505,#506);
#459=AXIS2_PLACEMENT_3D('',#627,#510,#511);
#460=AXIS2_PLACEMENT_3D('',#631,#514,#515);
#461=AXIS2_PLACEMENT_3D('',#640,#520,#521);
#462=AXIS2_PLACEMENT_3D('',#646,#525,#526);
#463=AXIS2_PLACEMENT_3D('',#650,#529,#530);
#464=AXIS2_PLACEMENT_3D('',#654,#533,#534);
#465=AXIS2_PLACEMENT_3D('',#656,#536,#537);
#466=AXIS2_PLACEMENT_3D('',#662,#541,#542);
#467=AXIS2_PLACEMENT_3D('',#666,#545,#546);
#468=AXIS2_PLACEMENT_3D('',#674,#551,#552);
#469=AXIS2_PLACEMENT_3D('',#679,#556,#557);
#470=AXIS2_PLACEMENT_3D('',#683,#560,#561);
#471=AXIS2_PLACEMENT_3D('',#685,#563,#564);
#472=AXIS2_PLACEMENT_3D('',#687,#566,#567);
#473=AXIS2_PLACEMENT_3D('',#696,#572,#573);
#474=AXIS2_PLACEMENT_3D('',#699,#576,#577);
#475=AXIS2_PLACEMENT_3D('',#703,#580,#581);
#476=AXIS2_PLACEMENT_3D('',#706,#584,#585);
#477=AXIS2_PLACEMENT_3D('',#707,#586,#587);
#478=AXIS2_PLACEMENT_3D('',#709,#589,#590);
#479=AXIS2_PLACEMENT_3D('',#710,#591,#592);
#480=AXIS2_PLACEMENT_3D('',#711,#593,#594);
#481=DIRECTION('axis',(0.,0.,1.));
#482=DIRECTION('refdir',(1.,0.,0.));
#483=DIRECTION('axis',(0.,0.,1.));
#484=DIRECTION('refdir',(1.,0.,0.));
#485=DIRECTION('center_axis',(-0.707106781186549,1.61403036890838E-33,-0.707106781186546));
#486=DIRECTION('ref_axis',(-0.707106781186546,0.,0.707106781186549));
#487=DIRECTION('',(2.28258363779228E-33,1.,0.));
#488=DIRECTION('',(0.577350269189625,-0.577350269189625,-0.577350269189627));
#489=DIRECTION('',(-2.28258363779228E-33,-1.,0.));
#490=DIRECTION('',(-0.577350269189625,-0.577350269189625,0.577350269189627));
#491=DIRECTION('center_axis',(0.707106781186549,0.,-0.707106781186546));
#492=DIRECTION('ref_axis',(-0.707106781186546,0.,-0.707106781186549));
#493=DIRECTION('',(0.,1.,0.));
#494=DIRECTION('',(0.577350269189625,0.577350269189625,0.577350269189627));
#495=DIRECTION('',(0.,-1.,0.));
#496=DIRECTION('',(0.577350269189625,-0.577350269189625,0.577350269189627));
#497=DIRECTION('center_axis',(0.,0.707106781186549,-0.707106781186546));
#498=DIRECTION('ref_axis',(-1.,0.,0.));
#499=DIRECTION('',(1.,0.,0.));
#500=DIRECTION('',(-1.,0.,0.));
#501=DIRECTION('center_axis',(-1.61403036890838E-33,-0.707106781186549,
-0.707106781186546));
#502=DIRECTION('ref_axis',(-1.,0.,2.28258363779229E-33));
#503=DIRECTION('',(-1.,2.28258363779228E-33,0.));
#504=DIRECTION('',(1.,-2.28258363779228E-33,0.));
#505=DIRECTION('center_axis',(-2.28258363779228E-33,-1.,0.));
#506=DIRECTION('ref_axis',(1.,-2.28258363779228E-33,0.));
#507=DIRECTION('',(0.,0.,1.));
#508=DIRECTION('',(1.,-2.28258363779228E-33,0.));
#509=DIRECTION('',(0.,0.,1.));
#510=DIRECTION('center_axis',(1.,0.,0.));
#511=DIRECTION('ref_axis',(0.,1.,0.));
#512=DIRECTION('',(0.,0.,1.));
#513=DIRECTION('',(0.,1.,0.));
#514=DIRECTION('center_axis',(0.,0.,1.));
#515=DIRECTION('ref_axis',(1.,0.,0.));
#516=DIRECTION('',(1.97372982155583E-16,1.,0.));
#517=DIRECTION('',(-1.,-9.86886841596619E-17,0.));
#518=DIRECTION('',(0.,-1.,0.));
#519=DIRECTION('',(1.,0.,0.));
#520=DIRECTION('center_axis',(0.707106781186552,-1.39563774105225E-16,-0.707106781186543));
#521=DIRECTION('ref_axis',(-0.707106781186543,0.,-0.707106781186552));
#522=DIRECTION('',(0.57735026918962,-0.57735026918963,0.577350269189627));
#523=DIRECTION('',(-1.97372982155583E-16,-1.,0.));
#524=DIRECTION('',(-0.577350269189622,-0.577350269189627,-0.577350269189629));
#525=DIRECTION('center_axis',(0.,-0.707106781186546,-0.707106781186549));
#526=DIRECTION('ref_axis',(-1.,0.,0.));
#527=DIRECTION('',(-1.,0.,0.));
#528=DIRECTION('',(-0.577350269189623,-0.577350269189629,0.577350269189625));
#529=DIRECTION('center_axis',(-0.707106781186549,0.,-0.707106781186546));
#530=DIRECTION('ref_axis',(-0.707106781186546,0.,0.707106781186549));
#531=DIRECTION('',(0.,1.,0.));
#532=DIRECTION('',(-0.577350269189625,0.577350269189625,0.577350269189627));
#533=DIRECTION('center_axis',(-6.97834377956743E-17,0.707106781186547,-0.707106781186548));
#534=DIRECTION('ref_axis',(-1.,0.,9.86886841596618E-17));
#535=DIRECTION('',(1.,9.86886841596619E-17,0.));
#536=DIRECTION('center_axis',(-9.86886841596619E-17,1.,0.));
#537=DIRECTION('ref_axis',(-1.,-9.86886841596619E-17,0.));
#538=DIRECTION('',(0.,0.,1.));
#539=DIRECTION('',(-1.,-9.86886841596619E-17,0.));
#540=DIRECTION('',(0.,0.,1.));
#541=DIRECTION('center_axis',(1.,-1.97372982155583E-16,0.));
#542=DIRECTION('ref_axis',(1.97372982155583E-16,1.,0.));
#543=DIRECTION('',(0.,0.,1.));
#544=DIRECTION('',(1.97372982155583E-16,1.,0.));
#545=DIRECTION('center_axis',(-0.707106781186548,1.61403036890838E-33,0.707106781186548));
#546=DIRECTION('ref_axis',(0.707106781186548,0.,0.707106781186548));
#547=DIRECTION('',(2.28258363779228E-33,1.,0.));
#548=DIRECTION('',(-0.577350269189625,0.577350269189625,-0.577350269189628));
#549=DIRECTION('',(-2.28258363779228E-33,-1.,0.));
#550=DIRECTION('',(-0.577350269189627,-0.577350269189624,-0.577350269189627));
#551=DIRECTION('center_axis',(0.,0.707106781186549,0.707106781186546));
#552=DIRECTION('ref_axis',(1.,0.,0.));
#553=DIRECTION('',(1.,0.,0.));
#554=DIRECTION('',(0.577350269189622,0.577350269189632,-0.577350269189624));
#555=DIRECTION('',(-1.,0.,0.));
#556=DIRECTION('center_axis',(0.707106781186549,0.,0.707106781186546));
#557=DIRECTION('ref_axis',(0.707106781186546,0.,-0.707106781186549));
#558=DIRECTION('',(0.,-1.,0.));
#559=DIRECTION('',(0.577350269189631,-0.577350269189623,-0.577350269189623));
#560=DIRECTION('center_axis',(-1.61403036890838E-33,-0.707106781186548,
0.707106781186548));
#561=DIRECTION('ref_axis',(1.,0.,2.28258363779228E-33));
#562=DIRECTION('',(-1.,2.28258363779228E-33,0.));
#563=DIRECTION('center_axis',(-1.,2.28258363779228E-33,0.));
#564=DIRECTION('ref_axis',(-2.28258363779228E-33,-1.,0.));
#565=DIRECTION('',(0.,0.,1.));
#566=DIRECTION('center_axis',(0.,0.,1.));
#567=DIRECTION('ref_axis',(1.,0.,0.));
#568=DIRECTION('',(1.,9.86886841596619E-17,0.));
#569=DIRECTION('',(-1.97372982155583E-16,-1.,0.));
#570=DIRECTION('',(-1.,0.,0.));
#571=DIRECTION('',(0.,1.,0.));
#572=DIRECTION('center_axis',(-6.97834377956742E-17,0.707106781186546,0.707106781186549));
#573=DIRECTION('ref_axis',(1.,0.,9.86886841596614E-17));
#574=DIRECTION('',(-0.577350269189624,0.577350269189627,-0.577350269189627));
#575=DIRECTION('',(0.577350269189624,0.577350269189627,-0.577350269189627));
#576=DIRECTION('center_axis',(-0.707106781186549,0.,0.707106781186546));
#577=DIRECTION('ref_axis',(0.707106781186546,0.,0.707106781186549));
#578=DIRECTION('',(-0.577350269189625,-0.577350269189625,-0.577350269189628));
#579=DIRECTION('',(0.,-1.,0.));
#580=DIRECTION('center_axis',(0.,-0.707106781186549,0.707106781186546));
#581=DIRECTION('ref_axis',(1.,0.,0.));
#582=DIRECTION('',(0.577350269189625,-0.577350269189625,-0.577350269189628));
#583=DIRECTION('',(1.,0.,0.));
#584=DIRECTION('center_axis',(0.707106781186549,-1.39563774105225E-16,0.707106781186546));
#585=DIRECTION('ref_axis',(0.707106781186546,0.,-0.707106781186549));
#586=DIRECTION('center_axis',(-1.,0.,0.));
#587=DIRECTION('ref_axis',(0.,-1.,0.));
#588=DIRECTION('',(0.,0.,1.));
#589=DIRECTION('center_axis',(0.,-1.,0.));
#590=DIRECTION('ref_axis',(1.,0.,0.));
#591=DIRECTION('center_axis',(0.,1.,0.));
#592=DIRECTION('ref_axis',(-1.,0.,0.));
#593=DIRECTION('',(0.,0.,1.));
#594=DIRECTION('',(1.,0.,0.));
#595=CARTESIAN_POINT('',(0.,0.,0.));
#596=CARTESIAN_POINT('',(0.,0.,0.));
#597=CARTESIAN_POINT('Origin',(0.499999999999998,81.,0.5));
#598=CARTESIAN_POINT('',(0.,0.,1.));
#599=CARTESIAN_POINT('',(2.46519032881566E-31,108.,1.));
#600=CARTESIAN_POINT('',(0.,81.,1.));
#601=CARTESIAN_POINT('',(0.999999999999996,107.,0.));
#602=CARTESIAN_POINT('',(2.46519032881566E-31,108.,1.));
#603=CARTESIAN_POINT('',(0.999999999999996,0.999999999999996,0.));
#604=CARTESIAN_POINT('',(0.999999999999996,81.,0.));
#605=CARTESIAN_POINT('',(0.999999999999996,0.999999999999996,0.));
#606=CARTESIAN_POINT('Origin',(107.5,27.,0.5));
#607=CARTESIAN_POINT('',(107.,0.999999999999996,0.));
#608=CARTESIAN_POINT('',(107.,107.,0.));
#609=CARTESIAN_POINT('',(107.,27.,0.));
#610=CARTESIAN_POINT('',(108.,108.,1.));
#611=CARTESIAN_POINT('',(107.,107.,0.));
#612=CARTESIAN_POINT('',(108.,-2.46519032881566E-31,1.));
#613=CARTESIAN_POINT('',(108.,27.,1.));
#614=CARTESIAN_POINT('',(107.,0.999999999999996,0.));
#615=CARTESIAN_POINT('Origin',(81.,107.5,0.5));
#616=CARTESIAN_POINT('',(81.,108.,1.));
#617=CARTESIAN_POINT('',(81.,107.,0.));
#618=CARTESIAN_POINT('Origin',(27.,0.499999999999998,0.5));
#619=CARTESIAN_POINT('',(27.,0.,1.));
#620=CARTESIAN_POINT('',(27.,0.999999999999996,0.));
#621=CARTESIAN_POINT('Origin',(0.,0.,0.));
#622=CARTESIAN_POINT('',(108.,-2.46519032881566E-31,14.));
#623=CARTESIAN_POINT('',(108.,-2.46519032881566E-31,0.));
#624=CARTESIAN_POINT('',(0.,0.,14.));
#625=CARTESIAN_POINT('',(27.,0.,14.));
#626=CARTESIAN_POINT('',(0.,0.,0.));
#627=CARTESIAN_POINT('Origin',(108.,-2.46519032881566E-31,0.));
#628=CARTESIAN_POINT('',(108.,108.,14.));
#629=CARTESIAN_POINT('',(108.,108.,0.));
#630=CARTESIAN_POINT('',(108.,27.,14.));
#631=CARTESIAN_POINT('Origin',(54.,54.,0.));
#632=CARTESIAN_POINT('',(51.151,24.87,0.));
#633=CARTESIAN_POINT('',(51.151,71.87,0.));
#634=CARTESIAN_POINT('',(51.151,39.935,0.));
#635=CARTESIAN_POINT('',(98.15,24.87,0.));
#636=CARTESIAN_POINT('',(75.575,24.87,0.));
#637=CARTESIAN_POINT('',(98.15,71.87,0.));
#638=CARTESIAN_POINT('',(98.15,62.435,0.));
#639=CARTESIAN_POINT('',(53.0755,71.87,0.));
#640=CARTESIAN_POINT('Origin',(51.651,39.935,0.5));
#641=CARTESIAN_POINT('',(52.151,70.87,1.));
#642=CARTESIAN_POINT('',(51.151,71.87,0.));
#643=CARTESIAN_POINT('',(52.151,25.87,1.));
#644=CARTESIAN_POINT('',(52.151,39.935,1.));
#645=CARTESIAN_POINT('',(52.151,25.87,1.));
#646=CARTESIAN_POINT('Origin',(53.0755,71.37,0.5));
#647=CARTESIAN_POINT('',(97.15,70.87,1.));
#648=CARTESIAN_POINT('',(53.0755,70.87,1.));
#649=CARTESIAN_POINT('',(98.15,71.87,0.));
#650=CARTESIAN_POINT('Origin',(97.65,62.435,0.5));
#651=CARTESIAN_POINT('',(97.15,25.87,1.));
#652=CARTESIAN_POINT('',(97.15,62.435,1.));
#653=CARTESIAN_POINT('',(98.15,24.87,0.));
#654=CARTESIAN_POINT('Origin',(75.575,25.37,0.5));
#655=CARTESIAN_POINT('',(75.575,25.87,1.));
#656=CARTESIAN_POINT('Origin',(97.15,25.87,0.));
#657=CARTESIAN_POINT('',(52.151,25.87,14.));
#658=CARTESIAN_POINT('',(52.151,25.87,0.));
#659=CARTESIAN_POINT('',(97.15,25.87,14.));
#660=CARTESIAN_POINT('',(75.575,25.87,14.));
#661=CARTESIAN_POINT('',(97.15,25.87,0.));
#662=CARTESIAN_POINT('Origin',(52.151,25.87,0.));
#663=CARTESIAN_POINT('',(52.151,70.87,14.));
#664=CARTESIAN_POINT('',(52.151,70.87,0.));
#665=CARTESIAN_POINT('',(52.151,39.935,14.));
#666=CARTESIAN_POINT('Origin',(0.5,81.,14.5));
#667=CARTESIAN_POINT('',(1.,0.999999999999996,15.));
#668=CARTESIAN_POINT('',(0.999999999999996,107.,15.));
#669=CARTESIAN_POINT('',(1.,81.,15.));
#670=CARTESIAN_POINT('',(2.46519032881566E-31,108.,14.));
#671=CARTESIAN_POINT('',(0.999999999999996,107.,15.));
#672=CARTESIAN_POINT('',(0.,81.,14.));
#673=CARTESIAN_POINT('',(1.,0.999999999999996,15.));
#674=CARTESIAN_POINT('Origin',(81.,107.5,14.5));
#675=CARTESIAN_POINT('',(107.,107.,15.));
#676=CARTESIAN_POINT('',(81.,107.,15.));
#677=CARTESIAN_POINT('',(107.,107.,15.));
#678=CARTESIAN_POINT('',(81.,108.,14.));
#679=CARTESIAN_POINT('Origin',(107.5,27.,14.5));
#680=CARTESIAN_POINT('',(107.,1.,15.));
#681=CARTESIAN_POINT('',(107.,27.,15.));
#682=CARTESIAN_POINT('',(107.,1.,15.));
#683=CARTESIAN_POINT('Origin',(27.,0.5,14.5));
#684=CARTESIAN_POINT('',(27.,1.,15.));
#685=CARTESIAN_POINT('Origin',(2.46519032881566E-31,108.,0.));
#686=CARTESIAN_POINT('',(2.46519032881566E-31,108.,0.));
#687=CARTESIAN_POINT('Origin',(54.,54.,15.));
#688=CARTESIAN_POINT('',(51.151,24.87,15.));
#689=CARTESIAN_POINT('',(98.15,24.87,15.));
#690=CARTESIAN_POINT('',(75.575,24.87,15.));
#691=CARTESIAN_POINT('',(51.151,71.87,15.));
#692=CARTESIAN_POINT('',(51.151,39.935,15.));
#693=CARTESIAN_POINT('',(98.15,71.87,15.));
#694=CARTESIAN_POINT('',(53.0755,71.87,15.));
#695=CARTESIAN_POINT('',(98.15,62.435,15.));
#696=CARTESIAN_POINT('Origin',(75.575,25.37,14.5));
#697=CARTESIAN_POINT('',(98.15,24.87,15.));
#698=CARTESIAN_POINT('',(51.151,24.87,15.));
#699=CARTESIAN_POINT('Origin',(97.65,62.435,14.5));
#700=CARTESIAN_POINT('',(97.15,70.87,14.));
#701=CARTESIAN_POINT('',(98.15,71.87,15.));
#702=CARTESIAN_POINT('',(97.15,62.435,14.));
#703=CARTESIAN_POINT('Origin',(53.0755,71.37,14.5));
#704=CARTESIAN_POINT('',(51.151,71.87,15.));
#705=CARTESIAN_POINT('',(53.0755,70.87,14.));
#706=CARTESIAN_POINT('Origin',(51.651,39.935,14.5));
#707=CARTESIAN_POINT('Origin',(97.15,70.87,0.));
#708=CARTESIAN_POINT('',(97.15,70.87,0.));
#709=CARTESIAN_POINT('Origin',(52.151,70.87,0.));
#710=CARTESIAN_POINT('Origin',(108.,108.,0.));
#711=CARTESIAN_POINT('',(0.,0.,0.));
#712=UNCERTAINTY_MEASURE_WITH_UNIT(LENGTH_MEASURE(0.01),#718,
'DISTANCE_ACCURACY_VALUE',
'Maximum model space distance between geometric entities at asserted c
onnectivities');
#713=UNCERTAINTY_MEASURE_WITH_UNIT(LENGTH_MEASURE(0.01),#718,
'DISTANCE_ACCURACY_VALUE',
'Maximum model space distance between geometric entities at asserted c
onnectivities');
#714=UNCERTAINTY_MEASURE_WITH_UNIT(LENGTH_MEASURE(0.01),#718,
'DISTANCE_ACCURACY_VALUE',
'Maximum model space distance between geometric entities at asserted c
onnectivities');
#715=(
GEOMETRIC_REPRESENTATION_CONTEXT(3)
GLOBAL_UNCERTAINTY_ASSIGNED_CONTEXT((#712))
GLOBAL_UNIT_ASSIGNED_CONTEXT((#718,#720,#721))
REPRESENTATION_CONTEXT('','3D')
);
#716=(
GEOMETRIC_REPRESENTATION_CONTEXT(3)
GLOBAL_UNCERTAINTY_ASSIGNED_CONTEXT((#713))
GLOBAL_UNIT_ASSIGNED_CONTEXT((#718,#720,#721))
REPRESENTATION_CONTEXT('','3D')
);
#717=(
GEOMETRIC_REPRESENTATION_CONTEXT(3)
GLOBAL_UNCERTAINTY_ASSIGNED_CONTEXT((#714))
GLOBAL_UNIT_ASSIGNED_CONTEXT((#718,#720,#721))
REPRESENTATION_CONTEXT('','3D')
);
#718=(
LENGTH_UNIT()
NAMED_UNIT(*)
SI_UNIT(.MILLI.,.METRE.)
);
#719=(
LENGTH_UNIT()
NAMED_UNIT(*)
SI_UNIT($,.METRE.)
);
#720=(
NAMED_UNIT(*)
PLANE_ANGLE_UNIT()
SI_UNIT($,.RADIAN.)
);
#721=(
NAMED_UNIT(*)
SI_UNIT($,.STERADIAN.)
SOLID_ANGLE_UNIT()
);
#722=SHAPE_DEFINITION_REPRESENTATION(#724,#727);
#723=SHAPE_DEFINITION_REPRESENTATION(#725,#728);
#724=PRODUCT_DEFINITION_SHAPE('',$,#730);
#725=PRODUCT_DEFINITION_SHAPE('',$,#731);
#726=PRODUCT_DEFINITION_SHAPE($,$,#14);
#727=SHAPE_REPRESENTATION('',(#452,#480),#715);
#728=SHAPE_REPRESENTATION('',(#453),#716);
#729=PRODUCT_DEFINITION_CONTEXT('part definition',#737,'design');
#730=PRODUCT_DEFINITION('HoldDownSpacer-15mm','HoldDownSpacer-15mm v6',
#732,#729);
#731=PRODUCT_DEFINITION('Component1','Component1',#733,#729);
#732=PRODUCT_DEFINITION_FORMATION('',$,#739);
#733=PRODUCT_DEFINITION_FORMATION('',$,#740);
#734=PRODUCT_RELATED_PRODUCT_CATEGORY('HoldDownSpacer-15mm v6',
'HoldDownSpacer-15mm v6',(#739));
#735=PRODUCT_RELATED_PRODUCT_CATEGORY('Component1','Component1',(#740));
#736=APPLICATION_PROTOCOL_DEFINITION('international standard',
'automotive_design',2009,#737);
#737=APPLICATION_CONTEXT(
'Core Data for Automotive Mechanical Design Process');
#738=PRODUCT_CONTEXT('part definition',#737,'mechanical');
#739=PRODUCT('HoldDownSpacer-15mm','HoldDownSpacer-15mm v6',$,(#738));
#740=PRODUCT('Component1','Component1',$,(#738));
#741=PRESENTATION_STYLE_ASSIGNMENT((#742));
#742=SURFACE_STYLE_USAGE(.BOTH.,#743);
#743=SURFACE_SIDE_STYLE('',(#744));
#744=SURFACE_STYLE_FILL_AREA(#745);
#745=FILL_AREA_STYLE('Steel - Satin',(#746));
#746=FILL_AREA_STYLE_COLOUR('Steel - Satin',#747);
#747=COLOUR_RGB('Steel - Satin',0.627450980392157,0.627450980392157,0.627450980392157);
ENDSEC;
END-ISO-10303-21;
